<?xml version="1.0" encoding="utf-8"?>
<!-- Generator: Adobe Illustrator 16.0.0, SVG Export Plug-In . SVG Version: 6.00 Build 0)  -->
<!DOCTYPE svg PUBLIC "-//W3C//DTD SVG 1.1//EN" "http://www.w3.org/Graphics/SVG/1.1/DTD/svg11.dtd">
<svg version="1.1" id="Layer_1" xmlns="http://www.w3.org/2000/svg" xmlns:xlink="http://www.w3.org/1999/xlink" x="0px" y="0px"
	 width="180px" height="180px" viewBox="0 0 180 180" enable-background="new 0 0 180 180" xml:space="preserve">
<polygon fill="#296056" points="68.952,107.053 45.2,77.269 53.677,40.128 88,23.6 122.322,40.128 130.8,77.269 107.048,107.053 "/>
<polygon opacity="0.6" fill="#FFFFFF" points="75.537,93.553 59.967,74.029 65.524,49.684 88.022,38.85 110.52,49.684 
	116.078,74.029 100.508,93.553 "/>
</svg>
