<?xml version="1.0" encoding="utf-8"?>
<!-- Generator: Adobe Illustrator 16.0.0, SVG Export Plug-In . SVG Version: 6.00 Build 0)  -->
<!DOCTYPE svg PUBLIC "-//W3C//DTD SVG 1.1//EN" "http://www.w3.org/Graphics/SVG/1.1/DTD/svg11.dtd">
<svg version="1.1" id="Layer_1" xmlns="http://www.w3.org/2000/svg" xmlns:xlink="http://www.w3.org/1999/xlink" x="0px" y="0px"
	 width="180px" height="180px" viewBox="0 0 180 180" enable-background="new 0 0 180 180" xml:space="preserve">
<g>
	<polygon fill="#008DC2" points="45.031,76.956 53.553,39.5 88.059,22.824 122.563,39.412 131.086,76.971 88.059,156.693 	"/>
	<polygon opacity="0.5" fill="#FFFFFF" points="115.793,74.828 100.246,94.165 75.434,94.065 60.043,74.605 65.661,50.438 
		88.058,39.762 110.369,50.617 	"/>
</g>
</svg>
