<?xml version="1.0" encoding="utf-8"?>
<!-- Generator: Adobe Illustrator 16.0.0, SVG Export Plug-In . SVG Version: 6.00 Build 0)  -->
<!DOCTYPE svg PUBLIC "-//W3C//DTD SVG 1.1//EN" "http://www.w3.org/Graphics/SVG/1.1/DTD/svg11.dtd">
<svg version="1.1" id="Layer_1" xmlns="http://www.w3.org/2000/svg" xmlns:xlink="http://www.w3.org/1999/xlink" x="0px" y="0px"
	 width="180px" height="180px" viewBox="0 0 180 180" enable-background="new 0 0 180 180" xml:space="preserve">
<g>
	<polygon fill="#0462A1" points="47.35,76.144 55.771,39.131 89.867,22.652 123.966,39.043 132.387,76.16 89.867,154.938 	"/>
	<polygon opacity="0.7" fill="#FFFFFF" points="117.402,74.041 102.04,93.149 77.521,93.051 62.313,73.821 67.863,49.939 
		89.996,39.39 112.043,50.116 	"/>
</g>
</svg>
