<svg id="Livello_1" data-name="Livello 1" xmlns="http://www.w3.org/2000/svg" viewBox="0 0 1281 799"><defs><style>
  @import url('https://fonts.googleapis.com/css?family=Raleway');
  @import url('https://fonts.googleapis.com/css?family=Abril+Fatface');
  .cls-1{fill:#fdf9fc;}.cls-2,.cls-48{fill:none;stroke:#7c2c74;stroke-miterlimit:10;}.cls-2{stroke-width:2.84px;}.cls-20,.cls-3{font-size:18px;font-family:Raleway-SemiBold, Raleway;font-weight:700;}.cls-11,.cls-20,.cls-3{fill:#7c2c74;}.cls-3,.cls-9{letter-spacing:0.01em;}.cls-4{letter-spacing:-0.02em;}.cls-5{letter-spacing:-0.02em;}.cls-6{letter-spacing:-0.02em;}.cls-7{letter-spacing:0.01em;}.cls-8{letter-spacing:-0.02em;}.cls-10{letter-spacing:-0.06em;}.cls-11{font-size:22px;font-family:'Abril Fatface', cursive;letter-spacing:0.2em;}.cls-12{letter-spacing:0.17em;}.cls-13{letter-spacing:0.16em;}.cls-14{letter-spacing:0.1em;}.cls-15{letter-spacing:0.2em;}.cls-16{letter-spacing:0.15em;}.cls-17{letter-spacing:0.06em;}.cls-18{letter-spacing:0.05em;}.cls-19{letter-spacing:0.09em;}.cls-21{letter-spacing:-0.01em;}.cls-22{letter-spacing:-0.06em;}.cls-23{letter-spacing:-0.03em;}.cls-24{letter-spacing:-0.01em;}.cls-25{letter-spacing:0em;}.cls-26{letter-spacing:0em;}.cls-27{letter-spacing:-0.01em;}.cls-28{letter-spacing:0.01em;}.cls-29{letter-spacing:0.01em;}.cls-30{letter-spacing:-0.02em;}.cls-31{letter-spacing:0.01em;}.cls-32{letter-spacing:-0.11em;}.cls-33{letter-spacing:-0.02em;}.cls-34{letter-spacing:-0.06em;}.cls-35{letter-spacing:-0.01em;}.cls-36{letter-spacing:0em;}.cls-37{letter-spacing:-0.01em;}.cls-38{letter-spacing:-0.01em;}.cls-39{letter-spacing:-0.02em;}.cls-40{letter-spacing:-0.02em;}.cls-41{letter-spacing:-0.02em;}.cls-42{letter-spacing:-0.01em;}.cls-43{letter-spacing:-0.02em;}.cls-44{letter-spacing:-0.11em;}.cls-45{letter-spacing:-0.02em;}.cls-46{letter-spacing:-0.02em;}.cls-47{letter-spacing:-0.06em;}.cls-48{stroke-linecap:round;stroke-width:5.24px;}</style></defs><title>getting-started-full</title><rect class="cls-1" width="1281" height="799"/><polygon class="cls-2" points="590.97 204.38 528.85 282 551.03 378.99 640.78 422.15 730.54 378.9 752.71 282.02 690.59 204.38 590.97 204.38"/><text class="cls-3" transform="translate(343.98 245.6)">GE<tspan class="cls-4" x="24.16" y="0">T</tspan><tspan x="34.92" y="0" xml:space="preserve"> INSPIRED </tspan><tspan x="-68.26" y="29">AND INSPIRE </tspan><tspan class="cls-5" x="50.2" y="29">O</tspan><tspan x="63.32" y="29">THERS </tspan><tspan class="cls-6"><tspan x="-196.87" y="58">T</tspan><tspan class="cls-7" x="-186.19" y="58">O LEARN</tspan><tspan class="cls-8" x="-107.73" y="58"> </tspan><tspan class="cls-7" x="-103.66" y="58">ABOU</tspan><tspan class="cls-4" x="-51.57" y="58">T</tspan><tspan class="cls-9" x="-40.81" y="58" xml:space="preserve"> CLIM</tspan><tspan class="cls-10" x="7.92" y="58">A</tspan><tspan class="cls-7" x="18.99" y="58">TE CHANGE</tspan></tspan></text><text class="cls-11" transform="translate(446.62 65.64)">G<tspan class="cls-12" x="20.31" y="0">E</tspan><tspan x="37.77" y="0">T </tspan><tspan class="cls-13" x="65.56" y="0">S</tspan><tspan class="cls-14" x="82.17" y="0">T</tspan><tspan class="cls-15" x="99.29" y="0">A</tspan><tspan class="cls-16" x="118.95" y="0">R</tspan><tspan class="cls-15" x="138.01" y="0">TED RIGHT </tspan><tspan class="cls-17" x="306.26" y="0">A</tspan><tspan class="cls-18" x="322.76" y="0">W</tspan><tspan class="cls-19" x="346.19" y="0">A</tspan><tspan class="cls-15" x="363.44" y="0">Y</tspan></text><line class="cls-2" x1="343.79" y1="205.52" x2="462.54" y2="205.52"/><line class="cls-2" x1="142.78" y1="332.99" x2="465.49" y2="332.99"/><text class="cls-20" transform="translate(817.45 244.81)"><tspan class="cls-7">MAKE USE O<tspan class="cls-21" x="110.16" y="0">F</tspan><tspan x="120.37" y="0" xml:space="preserve"> OUR </tspan></tspan><tspan x="0" y="29.58">C</tspan><tspan class="cls-22" x="12.31" y="29.58">AT</tspan><tspan class="cls-7" x="33.39" y="29.58">A</tspan><tspan class="cls-23" x="45.72" y="29.58">L</tspan><tspan class="cls-7" x="55.6" y="29.58">OGUE </tspan><tspan class="cls-24" x="111.81" y="29.58">F</tspan><tspan class="cls-7" x="122.13" y="29.58">OR </tspan><tspan class="cls-7"><tspan x="0" y="59.16">DEEPER R</tspan><tspan class="cls-25" x="86.34" y="59.16">E</tspan><tspan x="97.11" y="59.16">SEARCH</tspan><tspan x="0" y="88.73">AND BETTER UNDER</tspan><tspan class="cls-26" x="181.53" y="88.73">S</tspan><tspan class="cls-22" x="192.62" y="88.73">T</tspan><tspan x="202.62" y="88.73">ANDING</tspan></tspan></text><line class="cls-2" x1="815.16" y1="205.62" x2="980.8" y2="205.62"/><line class="cls-2" x1="818.11" y1="362.74" x2="1091.07" y2="362.74"/><text class="cls-3" transform="translate(589.1 489.74)">SUBSCRIBE <tspan class="cls-6"><tspan x="-47.05" y="29.58">T</tspan><tspan class="cls-7" x="-36.38" y="29.58">O OUR NE</tspan><tspan class="cls-27" x="51.12" y="29.58">W</tspan><tspan class="cls-28" x="69.91" y="29.58">SLETTER</tspan></tspan></text><text class="cls-20" transform="translate(816.1 461.5)"><tspan class="cls-29">USE<tspan class="cls-30" x="35.93" y="0"> </tspan><tspan class="cls-31" x="40.05" y="0">THE FI</tspan><tspan class="cls-32" x="96.21" y="0">L</tspan><tspan x="104.78" y="0">TERS</tspan><tspan class="cls-33" x="150.33" y="0"> </tspan><tspan x="154.4" y="0">AND </tspan></tspan><tspan x="0" y="29">C</tspan><tspan class="cls-34" x="12.31" y="29">A</tspan><tspan class="cls-29" x="23.38" y="29">T</tspan><tspan class="cls-35" x="34.65" y="29">E</tspan><tspan class="cls-31" x="45.41" y="29">GORI</tspan><tspan class="cls-36" x="89.4" y="29">E</tspan><tspan class="cls-29" x="100.17" y="29">S </tspan><tspan class="cls-37" x="115.97" y="29">F</tspan><tspan class="cls-29" x="126.29" y="29">OR MORE</tspan><tspan class="cls-29"><tspan x="0" y="58">PR</tspan><tspan class="cls-36" x="23.47" y="58">E</tspan><tspan x="34.24" y="58">CISE ENQUIRI</tspan><tspan class="cls-35" x="153.28" y="58">E</tspan><tspan x="164.05" y="58">S</tspan></tspan></text><line class="cls-2" x1="817.16" y1="425.52" x2="994.16" y2="425.52"/><line class="cls-2" x1="816.11" y1="546.36" x2="1044.69" y2="546.36"/><text class="cls-3" transform="translate(252.14 431.22)">SUR<tspan class="cls-38" x="36.97" y="0">F</tspan><tspan class="cls-39" x="47.18" y="0"> </tspan><tspan x="51.3" y="0">THE MA</tspan><tspan class="cls-40" x="119.95" y="0">P</tspan><tspan class="cls-8" x="130.86" y="0"> </tspan><tspan x="134.93" y="0">AND GE</tspan><tspan class="cls-4" x="203.09" y="0">T</tspan><tspan class="cls-41"><tspan x="-43.61" y="29" xml:space="preserve"> A</tspan><tspan class="cls-9" x="-27.77" y="29" xml:space="preserve"> SENSE O</tspan><tspan class="cls-42" x="53.6" y="29">F</tspan><tspan class="cls-43" x="63.81" y="29"> </tspan><tspan class="cls-7" x="67.82" y="29">WH</tspan><tspan class="cls-10" x="100.47" y="29">A</tspan><tspan class="cls-39" x="111.54" y="29">T</tspan><tspan class="cls-9" x="122.31" y="29" xml:space="preserve"> IS REAL</tspan><tspan class="cls-44" x="193.95" y="29">L</tspan><tspan class="cls-45" x="202.46" y="29">Y</tspan><tspan class="cls-7" x="213.85" y="29"> </tspan></tspan><tspan x="-14.96" y="58">HAPPENING</tspan><tspan class="cls-8" x="90.92" y="58"> </tspan><tspan x="94.99" y="58">AROUND</tspan><tspan class="cls-39" x="173.88" y="58"> </tspan><tspan class="cls-7" x="178" y="58">THE</tspan><tspan class="cls-45"><tspan x="-92.54" y="87"> </tspan><tspan class="cls-46" x="-88.52" y="87">W</tspan><tspan class="cls-9" x="-69.89" y="87">ORLD DUE</tspan><tspan class="cls-4" x="22.1" y="87"> </tspan><tspan class="cls-6" x="26.23" y="87">T</tspan><tspan class="cls-7" x="36.9" y="87">O CLIM</tspan><tspan class="cls-47" x="99.34" y="87">A</tspan><tspan class="cls-9" x="110.41" y="87">TE CHANGE</tspan></tspan></text><line class="cls-2" x1="180.59" y1="393.03" x2="464.54" y2="393.03"/><line class="cls-2" x1="150.71" y1="546.36" x2="463.49" y2="546.36"/><path class="cls-48" d="M315.05,702.22l-17.64,22.05s-16-20.27-17.11-21.89" transform="translate(343 -21)"/><path class="cls-48" d="M315.05,722l-17.64,22.06s-16-20.27-17.11-21.89" transform="translate(343 -21)"/><path class="cls-48" d="M315.05,743.56l-17.64,22.05s-16-20.27-17.11-21.89" transform="translate(343 -21)"/></svg>