<?xml version="1.0" encoding="utf-8"?>
<!-- Generator: Adobe Illustrator 16.0.3, SVG Export Plug-In . SVG Version: 6.00 Build 0)  -->
<!DOCTYPE svg PUBLIC "-//W3C//DTD SVG 1.1//EN" "http://www.w3.org/Graphics/SVG/1.1/DTD/svg11.dtd">
<svg version="1.1" id="Layer_1" xmlns="http://www.w3.org/2000/svg" xmlns:xlink="http://www.w3.org/1999/xlink" x="0px" y="0px"
	 width="512px" height="512px" viewBox="0 0 512 512" enable-background="new 0 0 512 512" xml:space="preserve">
<g>
	<polygon fill="none" stroke="#FFFFFF" stroke-width="24" stroke-miterlimit="10" points="261.199,59.398 370.313,382 153.344,382 	
		"/>
	<path fill="none" stroke="#FFFFFF" stroke-width="24" stroke-miterlimit="10" d="M344.848,299.715
		c21.973-65.754,50.016-147.135,50.016-147.135L471.316,382H369"/>
	<path fill="none" stroke="#FFFFFF" stroke-width="24" stroke-miterlimit="10" d="M153,382H52.957l75.738-232.32
		c0,0,28.23,88.299,50.531,154.229"/>
	<path fill="none" stroke="#FFFFFF" stroke-width="24" stroke-miterlimit="10" d="M156.199,228.93
		c19.16-57.285,38.52-115.234,38.52-115.234s11.539,33.176,24.008,70.031"/>
	<path fill="none" stroke="#FFFFFF" stroke-width="24" stroke-miterlimit="10" d="M365.906,228.93
		c-19.148-57.285-38.516-115.234-38.516-115.234s-11.066,32.883-23.535,69.75"/>
	<line fill="none" stroke="#FFFFFF" stroke-width="24" stroke-miterlimit="10" x1="261" y1="244" x2="261" y2="448"/>
	<polyline fill="none" stroke="#FFFFFF" stroke-width="12" stroke-miterlimit="10" points="220.656,278.914 260.285,318.531 
		299.891,278.914 	"/>
	<line fill="none" stroke="#FFFFFF" stroke-width="24" stroke-miterlimit="10" x1="135" y1="316" x2="135" y2="448"/>
	<line fill="none" stroke="#FFFFFF" stroke-width="24" stroke-miterlimit="10" x1="399" y1="316" x2="399" y2="448"/>
	<line fill="none" stroke="#FFFFFF" stroke-width="24" stroke-miterlimit="10" x1="327" y1="400" x2="327" y2="448"/>
	<line fill="none" stroke="#FFFFFF" stroke-width="24" stroke-miterlimit="10" x1="201" y1="400" x2="201" y2="448"/>
</g>
</svg>
