<?xml version="1.0" encoding="utf-8"?>
<!-- Generator: Adobe Illustrator 16.0.3, SVG Export Plug-In . SVG Version: 6.00 Build 0)  -->
<!DOCTYPE svg PUBLIC "-//W3C//DTD SVG 1.1//EN" "http://www.w3.org/Graphics/SVG/1.1/DTD/svg11.dtd">
<svg version="1.1" id="Layer_1" xmlns="http://www.w3.org/2000/svg" xmlns:xlink="http://www.w3.org/1999/xlink" x="0px" y="0px"
	 width="512px" height="512px" viewBox="0 0 512 512" enable-background="new 0 0 512 512" xml:space="preserve">
<g>
	<g>
		<path fill="none" stroke="#FFFFFF" stroke-width="24" stroke-miterlimit="10" d="M256,423H58.27l101.246-261.523
			c0,0,16.238,42.281,34.629,90.727"/>
		<path fill="none" stroke="#FFFFFF" stroke-width="24" stroke-miterlimit="10" d="M388,423H128.469L261.555,80.656
			c0,0,55.48,146.77,93.41,246.77"/>
		<polygon fill="none" stroke="#FFFFFF" stroke-width="24" stroke-miterlimit="10" points="453.754,423 316.891,423 
			386.617,246.031 		"/>
		<path fill="none" stroke="#FFFFFF" stroke-width="21.87" stroke-miterlimit="10" d="M156.063,293.43"/>
		
			<line fill="none" stroke="#FFFFFF" stroke-width="12" stroke-miterlimit="10" x1="162.227" y1="330.004" x2="123.18" y2="248.582"/>
		<polyline fill="none" stroke="#FFFFFF" stroke-width="12" stroke-miterlimit="10" points="160.059,159.883 218.582,309.227 
			260.219,228.965 300.289,308.934 327.484,246.594 		"/>
	</g>
	<polyline fill="none" stroke="#FFFFFF" stroke-width="12" stroke-miterlimit="10" points="417.063,324.367 386.086,395.629 
		354.836,321.023 	"/>
</g>
</svg>
