<?xml version="1.0" encoding="utf-8"?>
<!-- Generator: Adobe Illustrator 16.0.3, SVG Export Plug-In . SVG Version: 6.00 Build 0)  -->
<!DOCTYPE svg PUBLIC "-//W3C//DTD SVG 1.1//EN" "http://www.w3.org/Graphics/SVG/1.1/DTD/svg11.dtd">
<svg version="1.1" id="Layer_1" xmlns="http://www.w3.org/2000/svg" xmlns:xlink="http://www.w3.org/1999/xlink" x="0px" y="0px"
	 width="512px" height="512px" viewBox="0 0 512 512" enable-background="new 0 0 512 512" xml:space="preserve">
<pattern  width="87" height="87" patternUnits="userSpaceOnUse" id="Unnamed_Pattern_5" viewBox="0 -87 87 87" overflow="visible">
	<g>
		<polygon fill="none" points="0,0 87,0 87,-87 0,-87 		"/>
		<polygon fill="#7197CE" points="87,0 0,0 0,-87 87,-87 		"/>
	</g>
</pattern>
<g>
	<pattern  id="SVGID_1_" xlink:href="#Unnamed_Pattern_5" patternTransform="matrix(0.8099 0 0 0.8099 -1528.7617 -1272.918)">
	</pattern>
	<polygon fill="none" stroke="url(#SVGID_1_)" stroke-width="4" stroke-miterlimit="10" points="1167.979,584.233 1186.164,638 
		1150.003,638 	"/>
	<pattern  id="SVGID_2_" xlink:href="#Unnamed_Pattern_5" patternTransform="matrix(0.8099 0 0 0.8099 -1528.7617 -1272.918)">
	</pattern>
	<path fill="none" stroke="url(#SVGID_2_)" stroke-width="4" stroke-miterlimit="10" d="M1181.947,624.293
		c3.662-10.959,8.322-24.526,8.322-24.526L1202.998,638H1186"/>
	<pattern  id="SVGID_3_" xlink:href="#Unnamed_Pattern_5" patternTransform="matrix(0.8099 0 0 0.8099 -1528.7617 -1272.918)">
	</pattern>
	<path fill="none" stroke="url(#SVGID_3_)" stroke-width="4" stroke-miterlimit="10" d="M1150,638h-16.729l12.623-38.713
		c0,0,4.732,14.713,8.449,25.701"/>
	<pattern  id="SVGID_4_" xlink:href="#Unnamed_Pattern_5" patternTransform="matrix(0.8099 0 0 0.8099 -1528.7617 -1272.918)">
	</pattern>
	<path fill="none" stroke="url(#SVGID_4_)" stroke-width="4" stroke-miterlimit="10" d="M1150.479,612.503
		c3.193-9.548,6.42-19.206,6.42-19.206s1.923,5.529,4.001,11.672"/>
	<pattern  id="SVGID_5_" xlink:href="#Unnamed_Pattern_5" patternTransform="matrix(0.8099 0 0 0.8099 -1528.7617 -1272.918)">
	</pattern>
	<path fill="none" stroke="url(#SVGID_5_)" stroke-width="4" stroke-miterlimit="10" d="M1185.43,612.503
		c-3.191-9.548-6.419-19.206-6.419-19.206s-1.845,5.48-3.923,11.625"/>
	<pattern  id="SVGID_6_" xlink:href="#Unnamed_Pattern_5" patternTransform="matrix(0.8099 0 0 0.8099 -1526.1846 -1272.918)">
	</pattern>
	<line fill="none" stroke="url(#SVGID_6_)" stroke-width="4" stroke-miterlimit="10" x1="1168" y1="615" x2="1168" y2="649"/>
	<pattern  id="SVGID_7_" xlink:href="#Unnamed_Pattern_5" patternTransform="matrix(0.8099 0 0 0.8099 -1528.877 -1272.918)">
	</pattern>
	<polyline fill="none" stroke="url(#SVGID_7_)" stroke-width="2" stroke-miterlimit="10" points="1161.222,620.833 
		1167.826,627.437 1174.427,620.833 	"/>
	<pattern  id="SVGID_8_" xlink:href="#Unnamed_Pattern_5" patternTransform="matrix(0.8099 0 0 0.8099 -1525.0176 -1272.918)">
	</pattern>
	<line fill="none" stroke="url(#SVGID_8_)" stroke-width="4" stroke-miterlimit="10" x1="1147" y1="627" x2="1147" y2="649"/>
	<pattern  id="SVGID_9_" xlink:href="#Unnamed_Pattern_5" patternTransform="matrix(0.8099 0 0 0.8099 -1526.9619 -1272.918)">
	</pattern>
	<line fill="none" stroke="url(#SVGID_9_)" stroke-width="4" stroke-miterlimit="10" x1="1191" y1="627" x2="1191" y2="649"/>
	<pattern  id="SVGID_10_" xlink:href="#Unnamed_Pattern_5" patternTransform="matrix(0.8099 0 0 0.8099 -1526.9619 -1272.918)">
	</pattern>
	<line fill="none" stroke="url(#SVGID_10_)" stroke-width="4" stroke-miterlimit="10" x1="1179" y1="641" x2="1179" y2="649"/>
	<pattern  id="SVGID_11_" xlink:href="#Unnamed_Pattern_5" patternTransform="matrix(0.8099 0 0 0.8099 -1525.1621 -1272.918)">
	</pattern>
	<line fill="none" stroke="url(#SVGID_11_)" stroke-width="4" stroke-miterlimit="10" x1="1158" y1="641" x2="1158" y2="649"/>
</g>
<g>
	<polygon fill="#97D9F2" points="1148.205,544.047 1168.317,453.091 1059.545,400.542 1027.979,476.574 	"/>
	<polygon fill="#CEEBF1" points="1059.49,400.558 1027.979,476.555 951.61,452.232 	"/>
	<path fill="none" stroke="#231F20" stroke-width="2.9701" stroke-miterlimit="10" d="M1034.453,473.334"/>
	<polygon fill="#79C8E7" points="1148.306,543.985 1005.875,612.506 1027.913,476.547 	"/>
	<polygon fill="#716FB2" points="1148.205,544.055 1005.883,612.537 1119.763,664.552 	"/>
	<polygon fill="#A7DBDC" points="951.618,452.26 1027.951,476.52 1005.875,612.506 924.219,570.086 	"/>
	<polygon fill="#16AF96" points="924.219,570.086 1005.825,612.537 999.505,664.467 	"/>
	<polygon fill="#7C2B74" points="1005.852,612.521 1119.67,664.521 999.574,664.429 	"/>
	<polygon fill="#7197CE" points="1148.197,544.086 1119.731,664.552 1194.986,570.534 	"/>
	<polygon fill="#6CC3E1" points="1147.966,544.023 1194.986,570.526 1168.329,453.067 	"/>
	<g>
		<path opacity="0.8" fill="#FFFFF9" d="M1013.699,608.702c-2.096-4.337-7.306-6.153-11.658-4.066
			c-4.33,2.08-6.154,7.298-4.066,11.636c2.095,4.337,7.298,6.161,11.635,4.074C1013.954,618.258,1015.779,613.047,1013.699,608.702z
			"/>
		<path fill="#FFFFF9" d="M1010.097,610.388c-1.121-2.358-3.95-3.34-6.309-2.211c-2.335,1.129-3.332,3.95-2.196,6.309
			c1.129,2.343,3.951,3.34,6.297,2.211C1010.243,615.561,1011.232,612.73,1010.097,610.388z"/>
	</g>
	<path fill="#FFFFF9" d="M1027.913,476.5l120.099,67.617c0,0,16.78-75.039,20.317-91.042l-21.198,89.147L1027.913,476.5z"/>
	<polygon fill="#FFFFF9" points="951.634,452.217 1027.901,476.547 1059.545,400.542 1027.102,474.761 	"/>
	<polygon fill="#FFFFF9" points="924.219,570.086 1005.825,612.537 1027.878,476.466 1005.025,610.751 	"/>
	<polygon fill="#FFFFF9" points="1119.739,664.521 1005.798,611.941 999.528,664.39 1006.594,613.72 	"/>
	<polygon fill="#FFFFF9" points="1195.164,570.728 1147.443,542.811 1119.731,664.575 1148.205,544.511 	"/>
	<g>
		<path opacity="0.8" fill="#FFFFF9" d="M1035.807,472.692c-2.092-4.341-7.303-6.165-11.644-4.078
			c-4.333,2.088-6.165,7.299-4.078,11.636c2.095,4.345,7.306,6.166,11.644,4.074C1036.065,482.236,1037.89,477.037,1035.807,472.692
			z"/>
		<path fill="#FFFFF9" d="M1032.153,474.432c-1.129-2.346-3.95-3.336-6.309-2.207c-2.351,1.137-3.336,3.963-2.203,6.305
			c1.129,2.354,3.95,3.344,6.309,2.211C1032.293,479.612,1033.29,476.786,1032.153,474.432z"/>
	</g>
	<g>
		<path opacity="0.8" fill="#FFFFF9" d="M1156.199,540.089c-2.08-4.333-7.291-6.158-11.635-4.066
			c-4.338,2.087-6.162,7.29-4.075,11.635c2.088,4.337,7.299,6.162,11.636,4.075C1156.47,549.645,1158.302,544.434,1156.199,540.089z
			"/>
		<path fill="#FFFFF9" d="M1152.504,541.789c-1.133-2.342-3.955-3.34-6.301-2.203c-2.358,1.137-3.348,3.951-2.211,6.301
			c1.136,2.351,3.958,3.34,6.301,2.211C1152.646,546.97,1153.633,544.14,1152.504,541.789z"/>
	</g>
	
		<line fill="none" stroke="#FFFFFF" stroke-width="1.3843" stroke-miterlimit="10" x1="1005.825" y1="612.537" x2="1148.313" y2="543.978"/>
</g>
<g>
	<g>
		<g>
			<path fill="#716FB2" d="M301.258,162.477l-0.416,180.514c-35.18-27.789-83.947-66.048-112.684-88.569L301.258,162.477
				 M325.375,111.941L149.684,254.77c0,0,151.242,118.395,175.043,137.934L325.375,111.941L325.375,111.941z"/>
		</g>
		<polygon fill="none" stroke="#716FB2" stroke-width="24" stroke-miterlimit="10" points="80,325.367 161.922,253.109 80,181.691 
					"/>
	</g>
	<polyline fill="none" stroke="#716FB2" stroke-width="24" stroke-linecap="square" stroke-miterlimit="10" points="268.547,58.125 
		442.969,250.68 268.547,443.219 	"/>
</g>
</svg>
